﻿mogumogu,もぐもぐ
natunom,夏野未来
nametake,なめたけ
narazaka,奈良有限動画
reirin0805,R子
taito,たぃと
tamamusi,玉虫型偵察器
tara50no,五十野タラ
YR,山春黄
guest,
kunikichi,クニキチ
butameron,井二かける
Butameron,井二かける
shigi,しぎ
channel-kun,チャンネル君
lingerie,リンゲリエ
Lingerie,リンゲリエ
stars/dover,Stars/Dover
stars-dover,Stars/Dover
honoka,如月ほのか
rumia,るみあ
0taka,０峻
廣田智亮　,廣田智亮
